Minería de datos 1
…
## `summarise()` has grouped output by 'ST_CASE'. You can override using the
## `.groups` argument.

# Verificar el resultado
print(df_final_accidentDataDrugs)

## # A tibble: 35,935 × 4
##    ST_CASE VEH_NO PER_NO DRUGS_PER
##      <int>  <int>  <int>     <int>
##  1   10001      1      4         0
##  2   10002      4      6         1
##  3   10003      2      2         0
##  4   10004      1      5         2
##  5   10005      1      1         0
##  6   10006      2      3         1
##  7   10007      2      2         1
##  8   10008      2      2         0
##  9   10009      2      4         0
## 10   10010      2      3         0
## # ℹ 35,925 more rows
…
